Korean Welfare
…
Preprocessing is done. Lets create the table of average income per age and its graph.

age_income <- welfare %>% 
  filter(!is.na(income)) %>% 
  group_by(age) %>% 
  summarise(mean_income = mean(income))

age_income

## # A tibble: 69 x 2
##      age mean_income
##    <dbl>       <dbl>
##  1    19        121.
##  2    20        106.
##  3    21        130.
##  4    22        142.
##  5    23        134.
##  6    24        145.
##  7    25        158.
##  8    26        188.
##  9    27        205.
## 10    28        189.
## # ... with 59 more rows
…
Lets create the table that contains the ratio of age groups by regions.

region_ageg <- welfare %>% 
  group_by(region, ageg) %>%
  summarise(n=n()) %>% 
  mutate(tot_group = sum(n)) %>% 
  mutate(pct = round(n/tot_group*100, 1))

region_ageg

## # A tibble: 21 x 5
## # Groups:   region [7]
##    region                ageg       n tot_group   pct
##    <fct>                 <chr>  <int>     <int> <dbl>
##  1 Busan/Gyeongnam/Ulsan middle   992      2785  35.6
##  2 Busan/Gyeongnam/Ulsan old     1094      2785  39.3
##  3 Busan/Gyeongnam/Ulsan young    699      2785  25.1
##  4 Degu/Gyeongbuk        middle   651      2036  32  
##  5 Degu/Gyeongbuk        old      904      2036  44.4
##  6 Degu/Gyeongbuk        young    481      2036  23.6
##  7 Dejun/Chungnam        middle   557      1467  38  
##  8 Dejun/Chungnam        old      509      1467  34.7
##  9 Dejun/Chungnam        young    401      1467  27.3
## 10 Gangwon/Chungbuk      middle   431      1257  34.3
## # ... with 11 more rows
…
